{
    "relationships": [
        {
            "relationshipId": 1,
            "relationshipName": "employee",
            "otherEntityName": "tb_employee",
            "relationshipType": "many-to-one",
            "otherEntityField": "id"
        }
    ],
    "fields": [
        {
            "fieldId": 1,
            "fieldName": "name",
            "fieldType": "String"
        },
        {
            "fieldId": 2,
            "fieldName": "dateoftimesheet",
            "fieldType": "LocalDate"
        },
        {
            "fieldId": 3,
            "fieldName": "workinghours",
            "fieldType": "Float"
        },
        {
            "fieldId": 4,
            "fieldName": "billablehours",
            "fieldType": "Float"
        },
        {
            "fieldId": 5,
            "fieldName": "shift",
            "fieldType": "String"
        },
        {
            "fieldId": 6,
            "fieldName": "created_on",
            "fieldType": "LocalDate"
        },
        {
            "fieldId": 7,
            "fieldName": "created_by",
            "fieldType": "String"
        },
        {
            "fieldId": 8,
            "fieldName": "approvaldate",
            "fieldType": "LocalDate"
        },
        {
            "fieldId": 9,
            "fieldName": "status",
            "fieldType": "String"
        },
        {
            "fieldId": 10,
            "fieldName": "remark",
            "fieldType": "String"
        },
        {
            "fieldId": 11,
            "fieldName": "weekno",
            "fieldType": "Integer"
        },
        {
            "fieldId": 12,
            "fieldName": "modified_on",
            "fieldType": "LocalDate"
        },
        {
            "fieldId": 13,
            "fieldName": "modified_by",
            "fieldType": "String"
        }
    ],
    "changelogDate": "20160317060032",
    "dto": "no",
    "service": "no",
    "pagination": "pagination"
}